Py:MySvc             INFO ==> initializing [MySvc]...
Py:MySvc             INFO cnt: 0
Py:MyAlg1            INFO ==> initializing [MyAlg1]...
Py:MyAlg1            INFO eta: 2.5
Py:MyAlg1            INFO pt:  42.0
Py:MyAlg1            INFO px:  10000.0
Py:MyAlg1_mytool     INFO ==> initializing [MyAlg1_mytool]...
Py:MyAlg1_mytool     INFO cnt: 0
Py:MyAlg1            INFO tool:1 'MyAlg1_mytool'
Py:MyAlg2            INFO ==> initializing [MyAlg2]...
Py:MyAlg2            INFO eta: 5.1
Py:MyAlg2            INFO pt:  20000.0
Py:MyAlg2            INFO px:  10000.0
Py:MyAlg2_mytool     INFO ==> initializing [MyAlg2_mytool]...
Py:MyAlg2_mytool     INFO cnt: 0
Py:MyAlg2            INFO tool:1 'MyAlg2_mytool'
Py:MyAlg3            INFO ==> initializing [MyAlg3]...
Py:MyAlg3            INFO eta: 4.9
Py:MyAlg3            INFO pt:  15000.0
Py:MyAlg3            INFO px:  10000.0
Py:MyAlg3.MyTool     INFO ==> initializing [MyAlg3.MyTool]...
Py:MyAlg3.MyTool     INFO cnt: 50
Py:MyAlg3            INFO tool:51 'MyAlg3.MyTool'
Py:MyAlg1            INFO ==> execute...
Py:MyAlg1            INFO hasattr('_cppHandle'): True
Py:MyAlg1            INFO has passed filter: True
Py:MyAlg2            INFO ==> execute...
Py:MyAlg2            INFO hasattr('_cppHandle'): True
Py:MyAlg2            INFO has passed filter: False
Py:MyAlg1            INFO ==> execute...
Py:MyAlg1            INFO hasattr('_cppHandle'): True
Py:MyAlg1            INFO has passed filter: True
Py:MyAlg2            INFO ==> execute...
Py:MyAlg2            INFO hasattr('_cppHandle'): True
Py:MyAlg2            INFO has passed filter: False
Py:MyAlg1            INFO ==> finalize...
Py:MyAlg2            INFO ==> finalize...
Py:MyAlg3            INFO ==> finalize...
Py:MySvc             INFO ==> finalize...
Py:MySvc             INFO cnt: 0
